…
Complete the code below to select those variables from the data frame
and save the result.

``` r
Data <- Data %>%
        select(pidp, h_eumem, h_sex_dv, h_age_dv, h_memorig)

Data
```

    ## # A tibble: 39,293 x 5
    ##       pidp h_eumem h_sex_dv h_age_dv h_memorig
    ##      <dbl>   <dbl>    <dbl>    <dbl>     <dbl>
    ##  1   22445       1        2       31         3
    ##  2   29925       1        2       39         3
    ##  3   76165       1        2       33         3
    ##  4  223725      -7        1       41         3
    ##  5  280165       2        2       37         3
    ##  6  333205       1        2       26         3
    ##  7  665045       1        1       34         3
    ##  8  813285      -7        1       46         3
    ##  9 1587125       2        2       50         3
    ## 10 1697285       1        1       43         3
    ## # … with 39,283 more rows
…
